%YAML 1.1
%TAG !u! tag:unity3d.com,2011:
--- !u!1 &1513870178556669768
GameObject:
  m_ObjectHideFlags: 0
  m_CorrespondingSourceObject: {fileID: 0}
  m_PrefabInstance: {fileID: 0}
  m_PrefabAsset: {fileID: 0}
  serializedVersion: 6
  m_Component:
  - component: {fileID: 4095358587143130982}
  m_Layer: 0
  m_Name: Fence6
  m_TagString: Untagged
  m_Icon: {fileID: 0}
  m_NavMeshLayer: 0
  m_StaticEditorFlags: 0
  m_IsActive: 1
--- !u!4 &4095358587143130982
Transform:
  m_ObjectHideFlags: 0
  m_CorrespondingSourceObject: {fileID: 0}
  m_PrefabInstance: {fileID: 0}
  m_PrefabAsset: {fileID: 0}
  m_GameObject: {fileID: 1513870178556669768}
  m_LocalRotation: {x: 0, y: 0, z: 0, w: 1}
  m_LocalPosition: {x: 0, y: 0, z: 0}
  m_LocalScale: {x: 1, y: 1, z: 1}
  m_ConstrainProportionsScale: 0
  m_Children:
  - {fileID: 8431137199701982570}
  m_Father: {fileID: 0}
  m_RootOrder: 0
  m_LocalEulerAnglesHint: {x: 0, y: 0, z: 0}
--- !u!1001 &8253923707797117569
PrefabInstance:
  m_ObjectHideFlags: 0
  serializedVersion: 2
  m_Modification:
    m_TransformParent: {fileID: 4095358587143130982}
    m_Modifications:
    - target: {fileID: -8679921383154817045, guid: 5135ffe0b996037469779d95070681ce, type: 3}
      propertyPath: m_RootOrder
      value: 0
      objectReference: {fileID: 0}
    - target: {fileID: -8679921383154817045, guid: 5135ffe0b996037469779d95070681ce, type: 3}
      propertyPath: m_LocalPosition.x
      value: 0
      objectReference: {fileID: 0}
    - target: {fileID: -8679921383154817045, guid: 5135ffe0b996037469779d95070681ce, type: 3}
      propertyPath: m_LocalPosition.y
      value: 0
      objectReference: {fileID: 0}
    - target: {fileID: -8679921383154817045, guid: 5135ffe0b996037469779d95070681ce, type: 3}
      propertyPath: m_LocalPosition.z
      value: 0
      objectReference: {fileID: 0}
    - target: {fileID: -8679921383154817045, guid: 5135ffe0b996037469779d95070681ce, type: 3}
      propertyPath: m_LocalRotation.w
      value: 0.7071068
      objectReference: {fileID: 0}
    - target: {fileID: -8679921383154817045, guid: 5135ffe0b996037469779d95070681ce, type: 3}
      propertyPath: m_LocalRotation.x
      value: -0
      objectReference: {fileID: 0}
    - target: {fileID: -8679921383154817045, guid: 5135ffe0b996037469779d95070681ce, type: 3}
      propertyPath: m_LocalRotation.y
      value: -0.7071068
      objectReference: {fileID: 0}
    - target: {fileID: -8679921383154817045, guid: 5135ffe0b996037469779d95070681ce, type: 3}
      propertyPath: m_LocalRotation.z
      value: -0
      objectReference: {fileID: 0}
    - target: {fileID: -8679921383154817045, guid: 5135ffe0b996037469779d95070681ce, type: 3}
      propertyPath: m_LocalEulerAnglesHint.x
      value: 0
      objectReference: {fileID: 0}
    - target: {fileID: -8679921383154817045, guid: 5135ffe0b996037469779d95070681ce, type: 3}
      propertyPath: m_LocalEulerAnglesHint.y
      value: -90
      objectReference: {fileID: 0}
    - target: {fileID: -8679921383154817045, guid: 5135ffe0b996037469779d95070681ce, type: 3}
      propertyPath: m_LocalEulerAnglesHint.z
      value: 0
      objectReference: {fileID: 0}
    - target: {fileID: 919132149155446097, guid: 5135ffe0b996037469779d95070681ce, type: 3}
      propertyPath: m_Name
      value: Fense_4
      objectReference: {fileID: 0}
    m_RemovedComponents: []
  m_SourcePrefab: {fileID: 100100000, guid: 5135ffe0b996037469779d95070681ce, type: 3}
--- !u!4 &8431137199701982570 stripped
Transform:
  m_CorrespondingSourceObject: {fileID: -8679921383154817045, guid: 5135ffe0b996037469779d95070681ce, type: 3}
  m_PrefabInstance: {fileID: 8253923707797117569}
  m_PrefabAsset: {fileID: 0}
--- !u!1 &9100290714161457104 stripped
GameObject:
  m_CorrespondingSourceObject: {fileID: 919132149155446097, guid: 5135ffe0b996037469779d95070681ce, type: 3}
  m_PrefabInstance: {fileID: 8253923707797117569}
  m_PrefabAsset: {fileID: 0}
--- !u!65 &5891209991325055513
BoxCollider:
  m_ObjectHideFlags: 0
  m_CorrespondingSourceObject: {fileID: 0}
  m_PrefabInstance: {fileID: 0}
  m_PrefabAsset: {fileID: 0}
  m_GameObject: {fileID: 9100290714161457104}
  m_Material: {fileID: 13400000, guid: 4b785608e13d03d469562f9702d7eef2, type: 2}
  m_IsTrigger: 0
  m_Enabled: 1
  serializedVersion: 2
  m_Size: {x: 0.38008952, y: 0.84775203, z: 3.0000005}
  m_Center: {x: -0.06543794, y: 0.42387423, z: 1.412543}
