%YAML 1.1
%TAG !u! tag:unity3d.com,2011:
--- !u!1 &4762227596465576496
GameObject:
  m_ObjectHideFlags: 0
  m_CorrespondingSourceObject: {fileID: 0}
  m_PrefabInstance: {fileID: 0}
  m_PrefabAsset: {fileID: 0}
  serializedVersion: 6
  m_Component:
  - component: {fileID: 6159337875069447386}
  m_Layer: 0
  m_Name: Gate2
  m_TagString: Untagged
  m_Icon: {fileID: 0}
  m_NavMeshLayer: 0
  m_StaticEditorFlags: 0
  m_IsActive: 1
--- !u!4 &6159337875069447386
Transform:
  m_ObjectHideFlags: 0
  m_CorrespondingSourceObject: {fileID: 0}
  m_PrefabInstance: {fileID: 0}
  m_PrefabAsset: {fileID: 0}
  m_GameObject: {fileID: 4762227596465576496}
  m_LocalRotation: {x: 0, y: 0, z: 0, w: 1}
  m_LocalPosition: {x: 0, y: 0, z: 0}
  m_LocalScale: {x: 1, y: 1, z: 1}
  m_ConstrainProportionsScale: 0
  m_Children:
  - {fileID: 8148611052437074693}
  m_Father: {fileID: 0}
  m_RootOrder: 0
  m_LocalEulerAnglesHint: {x: 0, y: 0, z: 0}
--- !u!1001 &8547576908473701614
PrefabInstance:
  m_ObjectHideFlags: 0
  serializedVersion: 2
  m_Modification:
    m_TransformParent: {fileID: 6159337875069447386}
    m_Modifications:
    - target: {fileID: -8679921383154817045, guid: 2badb88407d68694e8430f873edefd8f, type: 3}
      propertyPath: m_RootOrder
      value: 0
      objectReference: {fileID: 0}
    - target: {fileID: -8679921383154817045, guid: 2badb88407d68694e8430f873edefd8f, type: 3}
      propertyPath: m_LocalPosition.x
      value: -0.577
      objectReference: {fileID: 0}
    - target: {fileID: -8679921383154817045, guid: 2badb88407d68694e8430f873edefd8f, type: 3}
      propertyPath: m_LocalPosition.y
      value: 0
      objectReference: {fileID: 0}
    - target: {fileID: -8679921383154817045, guid: 2badb88407d68694e8430f873edefd8f, type: 3}
      propertyPath: m_LocalPosition.z
      value: 0
      objectReference: {fileID: 0}
    - target: {fileID: -8679921383154817045, guid: 2badb88407d68694e8430f873edefd8f, type: 3}
      propertyPath: m_LocalRotation.w
      value: 0.7071068
      objectReference: {fileID: 0}
    - target: {fileID: -8679921383154817045, guid: 2badb88407d68694e8430f873edefd8f, type: 3}
      propertyPath: m_LocalRotation.x
      value: -0
      objectReference: {fileID: 0}
    - target: {fileID: -8679921383154817045, guid: 2badb88407d68694e8430f873edefd8f, type: 3}
      propertyPath: m_LocalRotation.y
      value: -0.7071068
      objectReference: {fileID: 0}
    - target: {fileID: -8679921383154817045, guid: 2badb88407d68694e8430f873edefd8f, type: 3}
      propertyPath: m_LocalRotation.z
      value: -0
      objectReference: {fileID: 0}
    - target: {fileID: -8679921383154817045, guid: 2badb88407d68694e8430f873edefd8f, type: 3}
      propertyPath: m_LocalEulerAnglesHint.x
      value: 0
      objectReference: {fileID: 0}
    - target: {fileID: -8679921383154817045, guid: 2badb88407d68694e8430f873edefd8f, type: 3}
      propertyPath: m_LocalEulerAnglesHint.y
      value: -90
      objectReference: {fileID: 0}
    - target: {fileID: -8679921383154817045, guid: 2badb88407d68694e8430f873edefd8f, type: 3}
      propertyPath: m_LocalEulerAnglesHint.z
      value: 0
      objectReference: {fileID: 0}
    - target: {fileID: 919132149155446097, guid: 2badb88407d68694e8430f873edefd8f, type: 3}
      propertyPath: m_Name
      value: gate_2
      objectReference: {fileID: 0}
    m_RemovedComponents: []
  m_SourcePrefab: {fileID: 100100000, guid: 2badb88407d68694e8430f873edefd8f, type: 3}
--- !u!1 &5937172670851372548 stripped
GameObject:
  m_CorrespondingSourceObject: {fileID: 2664447623740048106, guid: 2badb88407d68694e8430f873edefd8f, type: 3}
  m_PrefabInstance: {fileID: 8547576908473701614}
  m_PrefabAsset: {fileID: 0}
--- !u!65 &2007467478955379032
BoxCollider:
  m_ObjectHideFlags: 0
  m_CorrespondingSourceObject: {fileID: 0}
  m_PrefabInstance: {fileID: 0}
  m_PrefabAsset: {fileID: 0}
  m_GameObject: {fileID: 5937172670851372548}
  m_Material: {fileID: 13400000, guid: 4b785608e13d03d469562f9702d7eef2, type: 2}
  m_IsTrigger: 0
  m_Enabled: 1
  serializedVersion: 2
  m_Size: {x: 0.20520844, y: 1.2419821, z: 1.292775}
  m_Center: {x: 0.000000026546472, y: 0.6234061, z: -0.010835233}
--- !u!4 &8148611052437074693 stripped
Transform:
  m_CorrespondingSourceObject: {fileID: -8679921383154817045, guid: 2badb88407d68694e8430f873edefd8f, type: 3}
  m_PrefabInstance: {fileID: 8547576908473701614}
  m_PrefabAsset: {fileID: 0}
