%YAML 1.1
%TAG !u! tag:unity3d.com,2011:
--- !u!21 &2100000
Material:
  serializedVersion: 8
  m_ObjectHideFlags: 0
  m_CorrespondingSourceObject: {fileID: 0}
  m_PrefabInstance: {fileID: 0}
  m_PrefabAsset: {fileID: 0}
  m_Name: Level10MacMobileGrass01
  m_Shader: {fileID: 4800000, guid: 633f3942dd21bc74e8ced79f61bff941, type: 3}
  m_ValidKeywords:
  - USE_RT
  - USE_S
  - USE_SC
  m_InvalidKeywords: []
  m_LightmapFlags: 4
  m_EnableInstancingVariants: 0
  m_DoubleSidedGI: 0
  m_CustomRenderQueue: -1
  stringTagMap: {}
  disabledShaderPasses: []
  m_SavedProperties:
    serializedVersion: 3
    m_TexEnvs:
    - _BumpMap:
        m_Texture: {fileID: 0}
        m_Scale: {x: 1, y: 1}
        m_Offset: {x: 0, y: 0}
    - _DetailAlbedoMap:
        m_Texture: {fileID: 0}
        m_Scale: {x: 1, y: 1}
        m_Offset: {x: 0, y: 0}
    - _DetailMask:
        m_Texture: {fileID: 0}
        m_Scale: {x: 1, y: 1}
        m_Offset: {x: 0, y: 0}
    - _DetailNormalMap:
        m_Texture: {fileID: 0}
        m_Scale: {x: 1, y: 1}
        m_Offset: {x: 0, y: 0}
    - _Distortion:
        m_Texture: {fileID: 2800000, guid: 529789b31389da34d9a7f98c613bf944, type: 3}
        m_Scale: {x: 1, y: 1}
        m_Offset: {x: 0, y: 0}
    - _EmissionMap:
        m_Texture: {fileID: 0}
        m_Scale: {x: 1, y: 1}
        m_Offset: {x: 0, y: 0}
    - _GrassTex:
        m_Texture: {fileID: 2800000, guid: 5ddef0977dde72343992a79d27da33fe, type: 3}
        m_Scale: {x: 1, y: 1}
        m_Offset: {x: 0, y: 0}
    - _GroundTex:
        m_Texture: {fileID: 2800000, guid: 7f969087a2b5cf840bdda1c1d1e3a930, type: 3}
        m_Scale: {x: 1, y: 1}
        m_Offset: {x: 0, y: 0}
    - _MainTex:
        m_Texture: {fileID: 2800000, guid: afcc7acee33760346be2468accc0435a, type: 3}
        m_Scale: {x: 1, y: 1}
        m_Offset: {x: 0, y: 0}
    - _MetallicGlossMap:
        m_Texture: {fileID: 0}
        m_Scale: {x: 1, y: 1}
        m_Offset: {x: 0, y: 0}
    - _NoGrassTex:
        m_Texture: {fileID: 2800000, guid: f7c3b068a8f9d0b4598a006541a87a84, type: 3}
        m_Scale: {x: 1, y: 1}
        m_Offset: {x: 0, y: 0}
    - _Noise:
        m_Texture: {fileID: 2800000, guid: 369f6fef0ebe1f14aa6ed86d8e55cc6e, type: 3}
        m_Scale: {x: 1, y: 1}
        m_Offset: {x: 0, y: 0}
    - _OcclusionMap:
        m_Texture: {fileID: 0}
        m_Scale: {x: 1, y: 1}
        m_Offset: {x: 0, y: 0}
    - _ParallaxMap:
        m_Texture: {fileID: 0}
        m_Scale: {x: 1, y: 1}
        m_Offset: {x: 0, y: 0}
    m_Ints: []
    m_Floats:
    - _BumpScale: 1
    - _Cutoff: 0.5
    - _DetailNormalMapScale: 1
    - _DstBlend: 0
    - _FadeDistanceEnd: 50
    - _FadeDistanceStart: 40
    - _GlossMapScale: 1
    - _Glossiness: 0.5
    - _GlossyReflections: 1
    - _GrassCut: 0
    - _GrassSaturation: 2
    - _GrassShading: 0.228
    - _GrassThinness: 0.44
    - _GrassThinnessIntersection: 0.19
    - _Metallic: 0
    - _Mode: 0
    - _NoisePower: 0
    - _OcclusionStrength: 1
    - _Parallax: 0.02
    - _ProceduralDistance: 5.5
    - _ProceduralStrength: 1.5
    - _SmoothnessTextureChannel: 0
    - _SpecularHighlights: 1
    - _SrcBlend: 1
    - _TilingN1: 6.06
    - _TilingN2: 1.91
    - _TilingN3: 3
    - _UVSec: 0
    - _UseAmbientLight: 0
    - _UsePR: 0
    - _UseRT: 1
    - _UseShadow: 1
    - _UseShadowCast: 1
    - _UseTP: 0
    - _UseVR: 0
    - _UseWC: 0
    - _WindForce: 0.3
    - _WindMovement: 1
    - _WorldRotation: 0
    - _WorldScale: 10
    - _ZWrite: 1
    m_Colors:
    - _Color: {r: 0.4528302, g: 0.30971876, b: 0.22385189, a: 1}
    - _EmissionColor: {r: 0, g: 0, b: 0, a: 1}
    - _GroundColor: {r: 0.6792453, g: 0.6113208, b: 0.6113208, a: 1}
    - _ProjectedShadowColor: {r: 0.3291473, g: 0.5058824, b: 0.30504707, a: 1}
    - _SelfShadowColor: {r: 0.41568628, g: 0.43137255, b: 0.36078432, a: 1}
  m_BuildTextureStacks: []
