%YAML 1.1
%TAG !u! tag:unity3d.com,2011:
--- !u!1045 &1
EditorBuildSettings:
  m_ObjectHideFlags: 0
  serializedVersion: 2
  m_Scenes:
  - enabled: 1
    path: Assets/Scenes/MainLevel.unity
    guid: cf23d26a585ee23448092dd32baf834d
  - enabled: 1
    path: Assets/Scenes/Level1.unity
    guid: 4a0485e711bce6c4d846d35fd1c40057
  - enabled: 1
    path: Assets/Scenes/Level2.unity
    guid: ea1a3fbec84162d4db652f90f2d17f33
  - enabled: 1
    path: Assets/Scenes/Level3.unity
    guid: 1f2fabf6ecd33a742a025abf915eb1e3
  - enabled: 1
    path: Assets/Scenes/Level4.unity
    guid: 3a1e3a9cfae1f914db04e2521b936d0d
  - enabled: 1
    path: Assets/Scenes/Level5.unity
    guid: 02f11833d4541fa4fb3b70d27b7b7955
  - enabled: 1
    path: Assets/Scenes/Level6.unity
    guid: d9b63dee6130bba40a20692dce328c75
  - enabled: 1
    path: Assets/Scenes/Level7.unity
    guid: 08d44108315b987498eb021b938acd4a
  - enabled: 1
    path: Assets/Scenes/Level8.unity
    guid: b66e9383775741748a078d46491e2b07
  - enabled: 1
    path: Assets/Scenes/Level9.unity
    guid: 27342323c96ee13429636aee6bfd9ab5
  - enabled: 1
    path: Assets/Scenes/Level10.unity
    guid: cc2ef6bf9b8440e4b945865cfb9a60e9
  - enabled: 1
    path: Assets/Scenes/Level11.unity
    guid: 0d0a22a0819581c45a8490243b488776
  - enabled: 1
    path: Assets/Scenes/Level12.unity
    guid: 11b90916683480940a45719da6d7a5ff
  m_configObjects: {}
