%YAML 1.1
%TAG !u! tag:unity3d.com,2011:
--- !u!1 &191272293243764892
GameObject:
  m_ObjectHideFlags: 0
  m_CorrespondingSourceObject: {fileID: 0}
  m_PrefabInstance: {fileID: 0}
  m_PrefabAsset: {fileID: 0}
  serializedVersion: 6
  m_Component:
  - component: {fileID: 5340547124387583526}
  m_Layer: 0
  m_Name: Combine
  m_TagString: Untagged
  m_Icon: {fileID: 0}
  m_NavMeshLayer: 0
  m_StaticEditorFlags: 0
  m_IsActive: 1
--- !u!4 &5340547124387583526
Transform:
  m_ObjectHideFlags: 0
  m_CorrespondingSourceObject: {fileID: 0}
  m_PrefabInstance: {fileID: 0}
  m_PrefabAsset: {fileID: 0}
  m_GameObject: {fileID: 191272293243764892}
  m_LocalRotation: {x: 0, y: 0, z: 0, w: 1}
  m_LocalPosition: {x: 0, y: 0, z: 0}
  m_LocalScale: {x: 2, y: 2, z: 2}
  m_ConstrainProportionsScale: 0
  m_Children:
  - {fileID: 4818720231839192157}
  m_Father: {fileID: 0}
  m_RootOrder: 0
  m_LocalEulerAnglesHint: {x: 0, y: 0, z: 0}
--- !u!1001 &4995954304276640694
PrefabInstance:
  m_ObjectHideFlags: 0
  serializedVersion: 2
  m_Modification:
    m_TransformParent: {fileID: 5340547124387583526}
    m_Modifications:
    - target: {fileID: -8679921383154817045, guid: 6aef12297cbe43c4fa72c5f37fb20803, type: 3}
      propertyPath: m_RootOrder
      value: 0
      objectReference: {fileID: 0}
    - target: {fileID: -8679921383154817045, guid: 6aef12297cbe43c4fa72c5f37fb20803, type: 3}
      propertyPath: m_LocalScale.y
      value: 50.34261
      objectReference: {fileID: 0}
    - target: {fileID: -8679921383154817045, guid: 6aef12297cbe43c4fa72c5f37fb20803, type: 3}
      propertyPath: m_LocalPosition.x
      value: 0
      objectReference: {fileID: 0}
    - target: {fileID: -8679921383154817045, guid: 6aef12297cbe43c4fa72c5f37fb20803, type: 3}
      propertyPath: m_LocalPosition.y
      value: 1.85
      objectReference: {fileID: 0}
    - target: {fileID: -8679921383154817045, guid: 6aef12297cbe43c4fa72c5f37fb20803, type: 3}
      propertyPath: m_LocalPosition.z
      value: -2.835
      objectReference: {fileID: 0}
    - target: {fileID: -8679921383154817045, guid: 6aef12297cbe43c4fa72c5f37fb20803, type: 3}
      propertyPath: m_LocalRotation.w
      value: 0.71144634
      objectReference: {fileID: 0}
    - target: {fileID: -8679921383154817045, guid: 6aef12297cbe43c4fa72c5f37fb20803, type: 3}
      propertyPath: m_LocalRotation.x
      value: -0.70274043
      objectReference: {fileID: 0}
    - target: {fileID: -8679921383154817045, guid: 6aef12297cbe43c4fa72c5f37fb20803, type: 3}
      propertyPath: m_LocalRotation.y
      value: -0
      objectReference: {fileID: 0}
    - target: {fileID: -8679921383154817045, guid: 6aef12297cbe43c4fa72c5f37fb20803, type: 3}
      propertyPath: m_LocalRotation.z
      value: -0
      objectReference: {fileID: 0}
    - target: {fileID: -8679921383154817045, guid: 6aef12297cbe43c4fa72c5f37fb20803, type: 3}
      propertyPath: m_LocalEulerAnglesHint.x
      value: 0
      objectReference: {fileID: 0}
    - target: {fileID: -8679921383154817045, guid: 6aef12297cbe43c4fa72c5f37fb20803, type: 3}
      propertyPath: m_LocalEulerAnglesHint.y
      value: 0
      objectReference: {fileID: 0}
    - target: {fileID: -8679921383154817045, guid: 6aef12297cbe43c4fa72c5f37fb20803, type: 3}
      propertyPath: m_LocalEulerAnglesHint.z
      value: 0
      objectReference: {fileID: 0}
    - target: {fileID: 919132149155446097, guid: 6aef12297cbe43c4fa72c5f37fb20803, type: 3}
      propertyPath: m_Name
      value: Combine
      objectReference: {fileID: 0}
    m_RemovedComponents: []
  m_SourcePrefab: {fileID: 100100000, guid: 6aef12297cbe43c4fa72c5f37fb20803, type: 3}
--- !u!1 &4306052581069056387 stripped
GameObject:
  m_CorrespondingSourceObject: {fileID: -101579505491486155, guid: 6aef12297cbe43c4fa72c5f37fb20803, type: 3}
  m_PrefabInstance: {fileID: 4995954304276640694}
  m_PrefabAsset: {fileID: 0}
--- !u!114 &3031296743483182682
MonoBehaviour:
  m_ObjectHideFlags: 0
  m_CorrespondingSourceObject: {fileID: 0}
  m_PrefabInstance: {fileID: 0}
  m_PrefabAsset: {fileID: 0}
  m_GameObject: {fileID: 4306052581069056387}
  m_Enabled: 1
  m_EditorHideFlags: 0
  m_Script: {fileID: 11500000, guid: c3dc15251fe4886409c4400202b10231, type: 3}
  m_Name: 
  m_EditorClassIdentifier: 
  axis: {x: 1, y: 0, z: 0}
  speed: 2000
--- !u!4 &4818720231839192157 stripped
Transform:
  m_CorrespondingSourceObject: {fileID: -8679921383154817045, guid: 6aef12297cbe43c4fa72c5f37fb20803, type: 3}
  m_PrefabInstance: {fileID: 4995954304276640694}
  m_PrefabAsset: {fileID: 0}
