%YAML 1.1
%TAG !u! tag:unity3d.com,2011:
--- !u!1 &5778795054327170352
GameObject:
  m_ObjectHideFlags: 0
  m_CorrespondingSourceObject: {fileID: 0}
  m_PrefabInstance: {fileID: 0}
  m_PrefabAsset: {fileID: 0}
  serializedVersion: 6
  m_Component:
  - component: {fileID: 2080035445153079254}
  m_Layer: 0
  m_Name: Fossa
  m_TagString: Untagged
  m_Icon: {fileID: 0}
  m_NavMeshLayer: 0
  m_StaticEditorFlags: 0
  m_IsActive: 1
--- !u!4 &2080035445153079254
Transform:
  m_ObjectHideFlags: 0
  m_CorrespondingSourceObject: {fileID: 0}
  m_PrefabInstance: {fileID: 0}
  m_PrefabAsset: {fileID: 0}
  m_GameObject: {fileID: 5778795054327170352}
  m_LocalRotation: {x: 0, y: 0, z: 0, w: 1}
  m_LocalPosition: {x: 0, y: 0, z: 0}
  m_LocalScale: {x: 1, y: 1, z: 1}
  m_ConstrainProportionsScale: 0
  m_Children:
  - {fileID: 952523344012809274}
  m_Father: {fileID: 0}
  m_RootOrder: 0
  m_LocalEulerAnglesHint: {x: 0, y: 0, z: 0}
--- !u!1001 &3948839465708368583
PrefabInstance:
  m_ObjectHideFlags: 0
  serializedVersion: 2
  m_Modification:
    m_TransformParent: {fileID: 2080035445153079254}
    m_Modifications:
    - target: {fileID: 4121544608790604151, guid: f7bc7469a115d3c4b99618d7f78d31e1, type: 3}
      propertyPath: danger
      value: 7
      objectReference: {fileID: 0}
    - target: {fileID: 4320379746496128765, guid: f7bc7469a115d3c4b99618d7f78d31e1, type: 3}
      propertyPath: m_RootOrder
      value: 0
      objectReference: {fileID: 0}
    - target: {fileID: 4320379746496128765, guid: f7bc7469a115d3c4b99618d7f78d31e1, type: 3}
      propertyPath: m_LocalPosition.x
      value: 0
      objectReference: {fileID: 0}
    - target: {fileID: 4320379746496128765, guid: f7bc7469a115d3c4b99618d7f78d31e1, type: 3}
      propertyPath: m_LocalPosition.y
      value: 0.5
      objectReference: {fileID: 0}
    - target: {fileID: 4320379746496128765, guid: f7bc7469a115d3c4b99618d7f78d31e1, type: 3}
      propertyPath: m_LocalPosition.z
      value: 0.89
      objectReference: {fileID: 0}
    - target: {fileID: 4320379746496128765, guid: f7bc7469a115d3c4b99618d7f78d31e1, type: 3}
      propertyPath: m_LocalRotation.w
      value: 1
      objectReference: {fileID: 0}
    - target: {fileID: 4320379746496128765, guid: f7bc7469a115d3c4b99618d7f78d31e1, type: 3}
      propertyPath: m_LocalRotation.x
      value: 0
      objectReference: {fileID: 0}
    - target: {fileID: 4320379746496128765, guid: f7bc7469a115d3c4b99618d7f78d31e1, type: 3}
      propertyPath: m_LocalRotation.y
      value: 0
      objectReference: {fileID: 0}
    - target: {fileID: 4320379746496128765, guid: f7bc7469a115d3c4b99618d7f78d31e1, type: 3}
      propertyPath: m_LocalRotation.z
      value: 0
      objectReference: {fileID: 0}
    - target: {fileID: 4320379746496128765, guid: f7bc7469a115d3c4b99618d7f78d31e1, type: 3}
      propertyPath: m_LocalEulerAnglesHint.x
      value: 0
      objectReference: {fileID: 0}
    - target: {fileID: 4320379746496128765, guid: f7bc7469a115d3c4b99618d7f78d31e1, type: 3}
      propertyPath: m_LocalEulerAnglesHint.y
      value: 0
      objectReference: {fileID: 0}
    - target: {fileID: 4320379746496128765, guid: f7bc7469a115d3c4b99618d7f78d31e1, type: 3}
      propertyPath: m_LocalEulerAnglesHint.z
      value: 0
      objectReference: {fileID: 0}
    - target: {fileID: 5688920464597764712, guid: f7bc7469a115d3c4b99618d7f78d31e1, type: 3}
      propertyPath: m_Materials.Array.data[0]
      value: 
      objectReference: {fileID: 2100000, guid: ff7189d00313ec84682ff16d1c0ef860, type: 2}
    - target: {fileID: 7097923748016874645, guid: f7bc7469a115d3c4b99618d7f78d31e1, type: 3}
      propertyPath: m_Name
      value: Danger
      objectReference: {fileID: 0}
    m_RemovedComponents: []
  m_SourcePrefab: {fileID: 100100000, guid: f7bc7469a115d3c4b99618d7f78d31e1, type: 3}
--- !u!4 &952523344012809274 stripped
Transform:
  m_CorrespondingSourceObject: {fileID: 4320379746496128765, guid: f7bc7469a115d3c4b99618d7f78d31e1, type: 3}
  m_PrefabInstance: {fileID: 3948839465708368583}
  m_PrefabAsset: {fileID: 0}
--- !u!1 &6074789204973180498 stripped
GameObject:
  m_CorrespondingSourceObject: {fileID: 7097923748016874645, guid: f7bc7469a115d3c4b99618d7f78d31e1, type: 3}
  m_PrefabInstance: {fileID: 3948839465708368583}
  m_PrefabAsset: {fileID: 0}
--- !u!114 &1690072153820283894
MonoBehaviour:
  m_ObjectHideFlags: 0
  m_CorrespondingSourceObject: {fileID: 0}
  m_PrefabInstance: {fileID: 0}
  m_PrefabAsset: {fileID: 0}
  m_GameObject: {fileID: 6074789204973180498}
  m_Enabled: 1
  m_EditorHideFlags: 0
  m_Script: {fileID: 11500000, guid: 77e03aa6747902843a8a3072c484d1e3, type: 3}
  m_Name: 
  m_EditorClassIdentifier: 
